\relax 
\providecommand\hyper@newdestlabel[2]{}
\catcode `"\active 
\providecommand\HyperFirstAtBeginDocument{\AtBeginDocument}
\HyperFirstAtBeginDocument{\ifx\hyper@anchor\@undefined
\global\let\oldcontentsline\contentsline
\gdef\contentsline#1#2#3#4{\oldcontentsline{#1}{#2}{#3}}
\global\let\oldnewlabel\newlabel
\gdef\newlabel#1#2{\newlabelxx{#1}#2}
\gdef\newlabelxx#1#2#3#4#5#6{\oldnewlabel{#1}{{#2}{#3}}}
\AtEndDocument{\ifx\hyper@anchor\@undefined
\let\contentsline\oldcontentsline
\let\newlabel\oldnewlabel
\fi}
\fi}
\global\let\hyper@last\relax 
\gdef\HyperFirstAtBeginDocument#1{#1}
\providecommand\HyField@AuxAddToFields[1]{}
\providecommand\HyField@AuxAddToCoFields[2]{}
\@input{Titlepage.aux}
\select@language{ngerman}
\@writefile{toc}{\select@language{ngerman}}
\@writefile{lof}{\select@language{ngerman}}
\@writefile{lot}{\select@language{ngerman}}
\@writefile{toc}{\contentsline {section}{\numberline {1}Motivation}{3}{section.1}}
\@writefile{toc}{\contentsline {section}{\numberline {2}Grundlagen}{3}{section.2}}
\@writefile{toc}{\contentsline {subsection}{\numberline {2.1}Graphen}{3}{subsection.2.1}}
\@writefile{toc}{\contentsline {subsection}{\numberline {2.2}Wikidata Query}{3}{subsection.2.2}}
\@writefile{toc}{\contentsline {subsection}{\numberline {2.3}L\IeC {\"o}sungsansatz}{4}{subsection.2.3}}
\@writefile{toc}{\contentsline {section}{\numberline {3}Programmierumgebung}{5}{section.3}}
\@writefile{toc}{\contentsline {section}{\numberline {4}Architektur}{5}{section.4}}
\@writefile{toc}{\contentsline {subsection}{\numberline {4.1}Graph}{6}{subsection.4.1}}
\@writefile{toc}{\contentsline {subsection}{\numberline {4.2}API}{6}{subsection.4.2}}
\@writefile{toc}{\contentsline {subsection}{\numberline {4.3}Core}{7}{subsection.4.3}}
\@writefile{toc}{\contentsline {subsection}{\numberline {4.4}UI}{7}{subsection.4.4}}
\@writefile{toc}{\contentsline {subsection}{\numberline {4.5}Sequenzdiagramm}{8}{subsection.4.5}}
\@writefile{toc}{\contentsline {section}{\numberline {5}Verwendung}{10}{section.5}}
\@writefile{toc}{\contentsline {section}{\numberline {6}Weitere Verbesserungen}{11}{section.6}}
\@writefile{toc}{\contentsline {section}{\numberline {7}Fazit}{11}{section.7}}
